Análisis de Datos de Urgencias Respiratorias en Chile
…
data |> 
  filter(tipo_establecimiento == "Hospital",
         causa == "Neumonía (J12-J18)",
         anio == 2024) |>
  pivot_longer(
    cols = matches("num"),
    names_to = "edad_grupo",
    values_to = "casos"
  ) |>
  filter(edad_grupo != "num_total") |> 
  summarise(total_casos = sum(casos),
            .by = c(edad_grupo, semana_estadistica))

# A tibble: 240 × 3
   edad_grupo     semana_estadistica total_casos
   <chr>                       <int>       <int>
 1 num_menor1anio                 41         123
 2 num1a4anios                    41         623
 3 num5a14anios                   41         828
 4 num15a64anios                  41         918
 5 num65o_mas                     41        1128
 6 num_menor1anio                 47         118
 7 num1a4anios                    47         563
 8 num5a14anios                   47         866
 9 num15a64anios                  47         863
10 num65o_mas                     47        1017
# ℹ 230 more rows
…
